practise/div/wave.vcd
$date
	Sat Feb  7 15:12:47 2026
$end

$version
	Synopsys VCS version O-2018.09-SP2_Full64
$end

$timescale
	1ps
$end

$comment Csum: 1 eba633cd8a84e8c2 $end


$scope module tb_div $end
$var reg 1 ! clk $end
$var reg 1 " rst $end
$var reg 1 # div_sign $end
$var reg 1 $ div_start $end
$var reg 32 % dividend [31:0] $end
$var reg 32 & divisor [31:0] $end
$var wire 32 ' div_result_q [31:0] $end
$var wire 32 ( div_result_r [31:0] $end
$var wire 1 ) div_done $end
$var wire 1 * div_busy $end

$scope task test_case $end
$var reg 32 + a [31:0] $end
$var reg 32 , b [31:0] $end
$var reg 32 - exp_q [31:0] $end
$var reg 32 . exp_r [31:0] $end
$upscope $end


$scope module u_div $end
$var wire 1 ! clk $end
$var wire 1 " rst $end
$var wire 1 # div_sign $end
$var wire 1 $ div_start $end
$var wire 32 % dividend [31:0] $end
$var wire 32 & divisor [31:0] $end
$var reg 32 ' div_result_q [31:0] $end
$var reg 32 ( div_result_r [31:0] $end
$var reg 1 ) div_done $end
$var reg 1 * div_busy $end
$var reg 64 / dividend_extended [63:0] $end
$var reg 32 0 divisor_reg [31:0] $end
$var reg 6 1 cnt [5:0] $end
$var reg 2 2 current_state [1:0] $end
$var reg 2 3 next_state [1:0] $end
$var reg 1 4 sign_q $end
$var reg 1 5 sign_r $end
$var wire 1 6 op1_is_neg $end
$var wire 1 7 op2_is_neg $end
$var wire 32 8 op1_abs_dividend [31:0] $end
$var wire 32 9 op2_abs_divisor [31:0] $end
$var wire 64 : shift_dividend_extended [63:0] $end
$var wire 33 ; sub_result [32:0] $end
$var wire 1 < is_enough $end
$upscope $end

$upscope $end

$enddefinitions $end

#0
$dumpvars
0!
0#
0$
06
07
1"
04
05
x<
0*
0)
b000000 1
b00 2
b00000000000000000000000000000000 %
b0000000000000000000000000000000000000000000000000000000000000000 /
b00000000000000000000000000000000 &
b00000000000000000000000000000000 0
b00 3
b00000000000000000000000000000000 8
b00000000000000000000000000000000 9
b0000000000000000000000000000000000000000000000000000000000000000 :
b000000000000000000000000000000000 ;
bxxxxxxxxxxxxxxxxxxxxxxxxxxxxxxxx +
bxxxxxxxxxxxxxxxxxxxxxxxxxxxxxxxx ,
bxxxxxxxxxxxxxxxxxxxxxxxxxxxxxxxx -
bxxxxxxxxxxxxxxxxxxxxxxxxxxxxxxxx .
b00000000000000000000000000000000 '
b00000000000000000000000000000000 (
$end
1<
#5000
1!
#10000
0!
#15000
1!
#20000
0"
0!
#25000
1!
#30000
0!
#35000
1!
#40000
b00000000000000000000000001100100 +
b00000000000000000000000000001010 ,
b00000000000000000000000001100100 %
b00000000000000000000000000001010 &
0!
b00000000000000000000000001100100 8
b00000000000000000000000000001010 9
#45000
1!
1$
b01 3
1*
b00000000000000000000000000001010 0
b111111111111111111111111111110110 ;
0<
b0000000000000000000000000000000000000000000000000000000001100100 /
b0000000000000000000000000000000000000000000000000000000011001000 :
#50000
0!
#55000
1!
0$
b00000000000000000000000000001010 -
b00000000000000000000000000000000 .
b00 3
b01 2
0*
b01 3
#60000
0!
#65000
1!
b000001 1
b0000000000000000000000000000000000000000000000000000000011001000 /
b0000000000000000000000000000000000000000000000000000000110010000 :
#70000
0!
#75000
1!
b000010 1
b0000000000000000000000000000000000000000000000000000000110010000 /
b0000000000000000000000000000000000000000000000000000001100100000 :
#80000
0!
#85000
1!
b000011 1
b0000000000000000000000000000000000000000000000000000001100100000 /
b0000000000000000000000000000000000000000000000000000011001000000 :
#90000
0!
#95000
1!
b000100 1
b0000000000000000000000000000000000000000000000000000011001000000 /
b0000000000000000000000000000000000000000000000000000110010000000 :
#100000
0!
#105000
1!
b000101 1
b0000000000000000000000000000000000000000000000000000110010000000 /
b0000000000000000000000000000000000000000000000000001100100000000 :
#110000
0!
#115000
1!
b000110 1
b0000000000000000000000000000000000000000000000000001100100000000 /
b0000000000000000000000000000000000000000000000000011001000000000 :
#120000
0!
#125000
1!
b000111 1
b0000000000000000000000000000000000000000000000000011001000000000 /
b0000000000000000000000000000000000000000000000000110010000000000 :
#130000
0!
#135000
1!
b001000 1
b0000000000000000000000000000000000000000000000000110010000000000 /
b0000000000000000000000000000000000000000000000001100100000000000 :
#140000
0!
#145000
1!
b001001 1
b0000000000000000000000000000000000000000000000001100100000000000 /
b0000000000000000000000000000000000000000000000011001000000000000 :
#150000
0!
#155000
1!
b001010 1
b0000000000000000000000000000000000000000000000011001000000000000 /
b0000000000000000000000000000000000000000000000110010000000000000 :
#160000
0!
#165000
1!
b001011 1
b0000000000000000000000000000000000000000000000110010000000000000 /
b0000000000000000000000000000000000000000000001100100000000000000 :
#170000
0!
#175000
1!
b001100 1
b0000000000000000000000000000000000000000000001100100000000000000 /
b0000000000000000000000000000000000000000000011001000000000000000 :
#180000
0!
#185000
1!
b001101 1
b0000000000000000000000000000000000000000000011001000000000000000 /
b0000000000000000000000000000000000000000000110010000000000000000 :
#190000
0!
#195000
1!
b001110 1
b0000000000000000000000000000000000000000000110010000000000000000 /
b0000000000000000000000000000000000000000001100100000000000000000 :
#200000
0!
#205000
1!
b001111 1
b0000000000000000000000000000000000000000001100100000000000000000 /
b0000000000000000000000000000000000000000011001000000000000000000 :
#210000
0!
#215000
1!
b010000 1
b0000000000000000000000000000000000000000011001000000000000000000 /
b0000000000000000000000000000000000000000110010000000000000000000 :
#220000
0!
#225000
1!
b010001 1
b0000000000000000000000000000000000000000110010000000000000000000 /
b0000000000000000000000000000000000000001100100000000000000000000 :
#230000
0!
#235000
1!
b010010 1
b0000000000000000000000000000000000000001100100000000000000000000 /
b0000000000000000000000000000000000000011001000000000000000000000 :
#240000
0!
#245000
1!
b010011 1
b0000000000000000000000000000000000000011001000000000000000000000 /
b0000000000000000000000000000000000000110010000000000000000000000 :
#250000
0!
#255000
1!
b010100 1
b0000000000000000000000000000000000000110010000000000000000000000 /
b0000000000000000000000000000000000001100100000000000000000000000 :
#260000
0!
#265000
1!
b010101 1
b0000000000000000000000000000000000001100100000000000000000000000 /
b0000000000000000000000000000000000011001000000000000000000000000 :
#270000
0!
#275000
1!
b010110 1
b0000000000000000000000000000000000011001000000000000000000000000 /
b0000000000000000000000000000000000110010000000000000000000000000 :
#280000
0!
#285000
1!
b010111 1
b0000000000000000000000000000000000110010000000000000000000000000 /
b0000000000000000000000000000000001100100000000000000000000000000 :
#290000
0!
#295000
1!
b011000 1
b0000000000000000000000000000000001100100000000000000000000000000 /
b0000000000000000000000000000000011001000000000000000000000000000 :
#300000
0!
#305000
1!
b011001 1
b0000000000000000000000000000000011001000000000000000000000000000 /
b0000000000000000000000000000000110010000000000000000000000000000 :
b111111111111111111111111111110111 ;
#310000
0!
#315000
1!
b011010 1
b0000000000000000000000000000000110010000000000000000000000000000 /
b0000000000000000000000000000001100100000000000000000000000000000 :
b111111111111111111111111111111001 ;
#320000
0!
#325000
1!
b011011 1
b0000000000000000000000000000001100100000000000000000000000000000 /
b0000000000000000000000000000011001000000000000000000000000000000 :
b111111111111111111111111111111100 ;
#330000
0!
#335000
1!
b011100 1
b0000000000000000000000000000011001000000000000000000000000000000 /
b0000000000000000000000000000110010000000000000000000000000000000 :
b000000000000000000000000000000010 ;
1<
#340000
0!
#345000
1!
b011101 1
b0000000000000000000000000000001010000000000000000000000000000001 /
b0000000000000000000000000000010100000000000000000000000000000010 :
b111111111111111111111111111111011 ;
0<
#350000
0!
#355000
1!
b011110 1
b0000000000000000000000000000010100000000000000000000000000000010 /
b0000000000000000000000000000101000000000000000000000000000000100 :
b000000000000000000000000000000000 ;
1<
#360000
0!
#365000
1!
b011111 1
b0000000000000000000000000000000000000000000000000000000000000101 /
b0000000000000000000000000000000000000000000000000000000000001010 :
b111111111111111111111111111110110 ;
0<
#370000
0!
#375000
1!
b100000 1
b0000000000000000000000000000000000000000000000000000000000001010 /
b0000000000000000000000000000000000000000000000000000000000010100 :
#380000
0!
#385000
1!
1)
b00000000000000000000000000001010 '
b10 3
#390000
0!
#395000
1!
b10 2
b00 3
#400000
0!
#405000
1!
b00 2
0)
#410000
0!
#415000
b00000000000000000000000000000011 ,
b00000000000000000000000000000011 &
1!
b00000000000000000000000000000011 9
1$
b01 3
1*
b000000 1
b00000000000000000000000000000011 0
b111111111111111111111111111111101 ;
b0000000000000000000000000000000000000000000000000000000001100100 /
b0000000000000000000000000000000000000000000000000000000011001000 :
#420000
0!
#425000
1!
0$
b00000000000000000000000000100001 -
b00000000000000000000000000000001 .
b00 3
b01 2
0*
b01 3
#430000
0!
#435000
1!
b000001 1
b0000000000000000000000000000000000000000000000000000000011001000 /
b0000000000000000000000000000000000000000000000000000000110010000 :
#440000
0!
#445000
1!
b000010 1
b0000000000000000000000000000000000000000000000000000000110010000 /
b0000000000000000000000000000000000000000000000000000001100100000 :
#450000
0!
#455000
1!
b000011 1
b0000000000000000000000000000000000000000000000000000001100100000 /
b0000000000000000000000000000000000000000000000000000011001000000 :
#460000
0!
#465000
1!
b000100 1
b0000000000000000000000000000000000000000000000000000011001000000 /
b0000000000000000000000000000000000000000000000000000110010000000 :
#470000
0!
#475000
1!
b000101 1
b0000000000000000000000000000000000000000000000000000110010000000 /
b0000000000000000000000000000000000000000000000000001100100000000 :
#480000
0!
#485000
1!
b000110 1
b0000000000000000000000000000000000000000000000000001100100000000 /
b0000000000000000000000000000000000000000000000000011001000000000 :
#490000
0!
#495000
1!
b000111 1
b0000000000000000000000000000000000000000000000000011001000000000 /
b0000000000000000000000000000000000000000000000000110010000000000 :
#500000
0!
#505000
1!
b001000 1
b0000000000000000000000000000000000000000000000000110010000000000 /
b0000000000000000000000000000000000000000000000001100100000000000 :
#510000
0!
#515000
1!
b001001 1
b0000000000000000000000000000000000000000000000001100100000000000 /
b0000000000000000000000000000000000000000000000011001000000000000 :
#520000
0!
#525000
1!
b001010 1
b0000000000000000000000000000000000000000000000011001000000000000 /
b0000000000000000000000000000000000000000000000110010000000000000 :
#530000
0!
#535000
1!
b001011 1
b0000000000000000000000000000000000000000000000110010000000000000 /
b0000000000000000000000000000000000000000000001100100000000000000 :
#540000
0!
#545000
1!
b001100 1
b0000000000000000000000000000000000000000000001100100000000000000 /
b0000000000000000000000000000000000000000000011001000000000000000 :
#550000
0!
#555000
1!
b001101 1
b0000000000000000000000000000000000000000000011001000000000000000 /
b0000000000000000000000000000000000000000000110010000000000000000 :
#560000
0!
#565000
1!
b001110 1
b0000000000000000000000000000000000000000000110010000000000000000 /
b0000000000000000000000000000000000000000001100100000000000000000 :
#570000
0!
#575000
1!
b001111 1
b0000000000000000000000000000000000000000001100100000000000000000 /
b0000000000000000000000000000000000000000011001000000000000000000 :
#580000
0!
#585000
1!
b010000 1
b0000000000000000000000000000000000000000011001000000000000000000 /
b0000000000000000000000000000000000000000110010000000000000000000 :
#590000
0!
#595000
1!
b010001 1
b0000000000000000000000000000000000000000110010000000000000000000 /
b0000000000000000000000000000000000000001100100000000000000000000 :
#600000
0!
#605000
1!
b010010 1
b0000000000000000000000000000000000000001100100000000000000000000 /
b0000000000000000000000000000000000000011001000000000000000000000 :
#610000
0!
#615000
1!
b010011 1
b0000000000000000000000000000000000000011001000000000000000000000 /
b0000000000000000000000000000000000000110010000000000000000000000 :
#620000
0!
#625000
1!
b010100 1
b0000000000000000000000000000000000000110010000000000000000000000 /
b0000000000000000000000000000000000001100100000000000000000000000 :
#630000
0!
#635000
1!
b010101 1
b0000000000000000000000000000000000001100100000000000000000000000 /
b0000000000000000000000000000000000011001000000000000000000000000 :
#640000
0!
#645000
1!
b010110 1
b0000000000000000000000000000000000011001000000000000000000000000 /
b0000000000000000000000000000000000110010000000000000000000000000 :
#650000
0!
#655000
1!
b010111 1
b0000000000000000000000000000000000110010000000000000000000000000 /
b0000000000000000000000000000000001100100000000000000000000000000 :
#660000
0!
#665000
1!
b011000 1
b0000000000000000000000000000000001100100000000000000000000000000 /
b0000000000000000000000000000000011001000000000000000000000000000 :
#670000
0!
#675000
1!
b011001 1
b0000000000000000000000000000000011001000000000000000000000000000 /
b0000000000000000000000000000000110010000000000000000000000000000 :
b111111111111111111111111111111110 ;
#680000
0!
#685000
1!
b011010 1
b0000000000000000000000000000000110010000000000000000000000000000 /
b0000000000000000000000000000001100100000000000000000000000000000 :
b000000000000000000000000000000000 ;
1<
#690000
0!
#695000
1!
b011011 1
b0000000000000000000000000000000000100000000000000000000000000001 /
b0000000000000000000000000000000001000000000000000000000000000010 :
b111111111111111111111111111111101 ;
0<
#700000
0!
#705000
1!
b011100 1
b0000000000000000000000000000000001000000000000000000000000000010 /
b0000000000000000000000000000000010000000000000000000000000000100 :
#710000
0!
#715000
1!
b011101 1
b0000000000000000000000000000000010000000000000000000000000000100 /
b0000000000000000000000000000000100000000000000000000000000001000 :
b111111111111111111111111111111110 ;
#720000
0!
#725000
1!
b011110 1
b0000000000000000000000000000000100000000000000000000000000001000 /
b0000000000000000000000000000001000000000000000000000000000010000 :
b111111111111111111111111111111111 ;
#730000
0!
#735000
1!
b011111 1
b0000000000000000000000000000001000000000000000000000000000010000 /
b0000000000000000000000000000010000000000000000000000000000100000 :
b000000000000000000000000000000001 ;
1<
#740000
0!
#745000
1!
b100000 1
b0000000000000000000000000000000100000000000000000000000000100001 /
b0000000000000000000000000000001000000000000000000000000001000010 :
b111111111111111111111111111111111 ;
0<
#750000
0!
#755000
1!
1)
b00000000000000000000000000100001 '
b00000000000000000000000000000001 (
b10 3
#760000
0!
#765000
1!
b10 2
b00 3
#770000
0!
#775000
1!
b00 2
0)
#780000
0!
#785000
b00000000000000000000000000000111 +
b00000000000000000000000000000111 %
1!
b00000000000000000000000000000111 8
1$
b01 3
1*
b000000 1
b0000000000000000000000000000000000000000000000000000000000000111 /
b0000000000000000000000000000000000000000000000000000000000001110 :
b111111111111111111111111111111101 ;
#790000
0!
#795000
1!
0$
b00000000000000000000000000000010 -
b00 3
b01 2
0*
b01 3
#800000
0!
#805000
1!
b000001 1
b0000000000000000000000000000000000000000000000000000000000001110 /
b0000000000000000000000000000000000000000000000000000000000011100 :
#810000
0!
#815000
1!
b000010 1
b0000000000000000000000000000000000000000000000000000000000011100 /
b0000000000000000000000000000000000000000000000000000000000111000 :
#820000
0!
#825000
1!
b000011 1
b0000000000000000000000000000000000000000000000000000000000111000 /
b0000000000000000000000000000000000000000000000000000000001110000 :
#830000
0!
#835000
1!
b000100 1
b0000000000000000000000000000000000000000000000000000000001110000 /
b0000000000000000000000000000000000000000000000000000000011100000 :
#840000
0!
#845000
1!
b000101 1
b0000000000000000000000000000000000000000000000000000000011100000 /
b0000000000000000000000000000000000000000000000000000000111000000 :
#850000
0!
#855000
1!
b000110 1
b0000000000000000000000000000000000000000000000000000000111000000 /
b0000000000000000000000000000000000000000000000000000001110000000 :
#860000
0!
#865000
1!
b000111 1
b0000000000000000000000000000000000000000000000000000001110000000 /
b0000000000000000000000000000000000000000000000000000011100000000 :
#870000
0!
#875000
1!
b001000 1
b0000000000000000000000000000000000000000000000000000011100000000 /
b0000000000000000000000000000000000000000000000000000111000000000 :
#880000
0!
#885000
1!
b001001 1
b0000000000000000000000000000000000000000000000000000111000000000 /
b0000000000000000000000000000000000000000000000000001110000000000 :
#890000
0!
#895000
1!
b001010 1
b0000000000000000000000000000000000000000000000000001110000000000 /
b0000000000000000000000000000000000000000000000000011100000000000 :
#900000
0!
#905000
1!
b001011 1
b0000000000000000000000000000000000000000000000000011100000000000 /
b0000000000000000000000000000000000000000000000000111000000000000 :
#910000
0!
#915000
1!
b001100 1
b0000000000000000000000000000000000000000000000000111000000000000 /
b0000000000000000000000000000000000000000000000001110000000000000 :
#920000
0!
#925000
1!
b001101 1
b0000000000000000000000000000000000000000000000001110000000000000 /
b0000000000000000000000000000000000000000000000011100000000000000 :
#930000
0!
#935000
1!
b001110 1
b0000000000000000000000000000000000000000000000011100000000000000 /
b0000000000000000000000000000000000000000000000111000000000000000 :
#940000
0!
#945000
1!
b001111 1
b0000000000000000000000000000000000000000000000111000000000000000 /
b0000000000000000000000000000000000000000000001110000000000000000 :
#950000
0!
#955000
1!
b010000 1
b0000000000000000000000000000000000000000000001110000000000000000 /
b0000000000000000000000000000000000000000000011100000000000000000 :
#960000
0!
#965000
1!
b010001 1
b0000000000000000000000000000000000000000000011100000000000000000 /
b0000000000000000000000000000000000000000000111000000000000000000 :
#970000
0!
#975000
1!
b010010 1
b0000000000000000000000000000000000000000000111000000000000000000 /
b0000000000000000000000000000000000000000001110000000000000000000 :
#980000
0!
#985000
1!
b010011 1
b0000000000000000000000000000000000000000001110000000000000000000 /
b0000000000000000000000000000000000000000011100000000000000000000 :
#990000
0!
#995000
1!
b010100 1
b0000000000000000000000000000000000000000011100000000000000000000 /
b0000000000000000000000000000000000000000111000000000000000000000 :
#1000000
0!
#1005000
1!
b010101 1
b0000000000000000000000000000000000000000111000000000000000000000 /
b0000000000000000000000000000000000000001110000000000000000000000 :
#1010000
0!
#1015000
1!
b010110 1
b0000000000000000000000000000000000000001110000000000000000000000 /
b0000000000000000000000000000000000000011100000000000000000000000 :
#1020000
0!
#1025000
1!
b010111 1
b0000000000000000000000000000000000000011100000000000000000000000 /
b0000000000000000000000000000000000000111000000000000000000000000 :
#1030000
0!
#1035000
1!
b011000 1
b0000000000000000000000000000000000000111000000000000000000000000 /
b0000000000000000000000000000000000001110000000000000000000000000 :
#1040000
0!
#1045000
1!
b011001 1
b0000000000000000000000000000000000001110000000000000000000000000 /
b0000000000000000000000000000000000011100000000000000000000000000 :
#1050000
0!
#1055000
1!
b011010 1
b0000000000000000000000000000000000011100000000000000000000000000 /
b0000000000000000000000000000000000111000000000000000000000000000 :
#1060000
0!
#1065000
1!
b011011 1
b0000000000000000000000000000000000111000000000000000000000000000 /
b0000000000000000000000000000000001110000000000000000000000000000 :
#1070000
0!
#1075000
1!
b011100 1
b0000000000000000000000000000000001110000000000000000000000000000 /
b0000000000000000000000000000000011100000000000000000000000000000 :
#1080000
0!
#1085000
1!
b011101 1
b0000000000000000000000000000000011100000000000000000000000000000 /
b0000000000000000000000000000000111000000000000000000000000000000 :
b111111111111111111111111111111110 ;
#1090000
0!
#1095000
1!
b011110 1
b0000000000000000000000000000000111000000000000000000000000000000 /
b0000000000000000000000000000001110000000000000000000000000000000 :
b000000000000000000000000000000000 ;
1<
#1100000
0!
#1105000
1!
b011111 1
b0000000000000000000000000000000010000000000000000000000000000001 /
b0000000000000000000000000000000100000000000000000000000000000010 :
b111111111111111111111111111111110 ;
0<
#1110000
0!
#1115000
1!
b100000 1
b0000000000000000000000000000000100000000000000000000000000000010 /
b0000000000000000000000000000001000000000000000000000000000000100 :
b111111111111111111111111111111111 ;
#1120000
0!
#1125000
1!
1)
b00000000000000000000000000000010 '
b10 3
#1130000
0!
#1135000
1!
b10 2
b00 3
#1140000
0!
#1145000
1!
b00 2
0)
#1150000
0!
#1155000
b00000000000000000000000000001111 +
b00000000000000000000000000000001 ,
b00000000000000000000000000001111 %
b00000000000000000000000000000001 &
1!
b00000000000000000000000000001111 8
b00000000000000000000000000000001 9
1$
b01 3
1*
b000000 1
b00000000000000000000000000000001 0
b000000000000000000000000000000001 ;
1<
b0000000000000000000000000000000000000000000000000000000000001111 /
b0000000000000000000000000000000000000000000000000000000000011110 :
b111111111111111111111111111111111 ;
0<
#1160000
0!
#1165000
1!
0$
b00000000000000000000000000001111 -
b00000000000000000000000000000000 .
b00 3
b01 2
0*
b01 3
#1170000
0!
#1175000
1!
b000001 1
b0000000000000000000000000000000000000000000000000000000000011110 /
b0000000000000000000000000000000000000000000000000000000000111100 :
#1180000
0!
#1185000
1!
b000010 1
b0000000000000000000000000000000000000000000000000000000000111100 /
b0000000000000000000000000000000000000000000000000000000001111000 :
#1190000
0!
#1195000
1!
b000011 1
b0000000000000000000000000000000000000000000000000000000001111000 /
b0000000000000000000000000000000000000000000000000000000011110000 :
#1200000
0!
#1205000
1!
b000100 1
b0000000000000000000000000000000000000000000000000000000011110000 /
b0000000000000000000000000000000000000000000000000000000111100000 :
#1210000
0!
#1215000
1!
b000101 1
b0000000000000000000000000000000000000000000000000000000111100000 /
b0000000000000000000000000000000000000000000000000000001111000000 :
#1220000
0!
#1225000
1!
b000110 1
b0000000000000000000000000000000000000000000000000000001111000000 /
b0000000000000000000000000000000000000000000000000000011110000000 :
#1230000
0!
#1235000
1!
b000111 1
b0000000000000000000000000000000000000000000000000000011110000000 /
b0000000000000000000000000000000000000000000000000000111100000000 :
#1240000
0!
#1245000
1!
b001000 1
b0000000000000000000000000000000000000000000000000000111100000000 /
b0000000000000000000000000000000000000000000000000001111000000000 :
#1250000
0!
#1255000
1!
b001001 1
b0000000000000000000000000000000000000000000000000001111000000000 /
b0000000000000000000000000000000000000000000000000011110000000000 :
#1260000
0!
#1265000
1!
b001010 1
b0000000000000000000000000000000000000000000000000011110000000000 /
b0000000000000000000000000000000000000000000000000111100000000000 :
#1270000
0!
#1275000
1!
b001011 1
b0000000000000000000000000000000000000000000000000111100000000000 /
b0000000000000000000000000000000000000000000000001111000000000000 :
#1280000
0!
#1285000
1!
b001100 1
b0000000000000000000000000000000000000000000000001111000000000000 /
b0000000000000000000000000000000000000000000000011110000000000000 :
#1290000
0!
#1295000
1!
b001101 1
b0000000000000000000000000000000000000000000000011110000000000000 /
b0000000000000000000000000000000000000000000000111100000000000000 :
#1300000
0!
#1305000
1!
b001110 1
b0000000000000000000000000000000000000000000000111100000000000000 /
b0000000000000000000000000000000000000000000001111000000000000000 :
#1310000
0!
#1315000
1!
b001111 1
b0000000000000000000000000000000000000000000001111000000000000000 /
b0000000000000000000000000000000000000000000011110000000000000000 :
#1320000
0!
#1325000
1!
b010000 1
b0000000000000000000000000000000000000000000011110000000000000000 /
b0000000000000000000000000000000000000000000111100000000000000000 :
#1330000
0!
#1335000
1!
b010001 1
b0000000000000000000000000000000000000000000111100000000000000000 /
b0000000000000000000000000000000000000000001111000000000000000000 :
#1340000
0!
#1345000
1!
b010010 1
b0000000000000000000000000000000000000000001111000000000000000000 /
b0000000000000000000000000000000000000000011110000000000000000000 :
#1350000
0!
#1355000
1!
b010011 1
b0000000000000000000000000000000000000000011110000000000000000000 /
b0000000000000000000000000000000000000000111100000000000000000000 :
#1360000
0!
#1365000
1!
b010100 1
b0000000000000000000000000000000000000000111100000000000000000000 /
b0000000000000000000000000000000000000001111000000000000000000000 :
#1370000
0!
#1375000
1!
b010101 1
b0000000000000000000000000000000000000001111000000000000000000000 /
b0000000000000000000000000000000000000011110000000000000000000000 :
#1380000
0!
#1385000
1!
b010110 1
b0000000000000000000000000000000000000011110000000000000000000000 /
b0000000000000000000000000000000000000111100000000000000000000000 :
#1390000
0!
#1395000
1!
b010111 1
b0000000000000000000000000000000000000111100000000000000000000000 /
b0000000000000000000000000000000000001111000000000000000000000000 :
#1400000
0!
#1405000
1!
b011000 1
b0000000000000000000000000000000000001111000000000000000000000000 /
b0000000000000000000000000000000000011110000000000000000000000000 :
#1410000
0!
#1415000
1!
b011001 1
b0000000000000000000000000000000000011110000000000000000000000000 /
b0000000000000000000000000000000000111100000000000000000000000000 :
#1420000
0!
#1425000
1!
b011010 1
b0000000000000000000000000000000000111100000000000000000000000000 /
b0000000000000000000000000000000001111000000000000000000000000000 :
#1430000
0!
#1435000
1!
b011011 1
b0000000000000000000000000000000001111000000000000000000000000000 /
b0000000000000000000000000000000011110000000000000000000000000000 :
#1440000
0!
#1445000
1!
b011100 1
b0000000000000000000000000000000011110000000000000000000000000000 /
b0000000000000000000000000000000111100000000000000000000000000000 :
b000000000000000000000000000000000 ;
1<
#1450000
0!
#1455000
1!
b011101 1
b0000000000000000000000000000000011100000000000000000000000000001 /
b0000000000000000000000000000000111000000000000000000000000000010 :
#1460000
0!
#1465000
1!
b011110 1
b0000000000000000000000000000000011000000000000000000000000000011 /
b0000000000000000000000000000000110000000000000000000000000000110 :
#1470000
0!
#1475000
1!
b011111 1
b0000000000000000000000000000000010000000000000000000000000000111 /
b0000000000000000000000000000000100000000000000000000000000001110 :
#1480000
0!
#1485000
1!
b100000 1
b0000000000000000000000000000000000000000000000000000000000001111 /
b0000000000000000000000000000000000000000000000000000000000011110 :
b111111111111111111111111111111111 ;
0<
#1490000
0!
#1495000
1!
1)
b00000000000000000000000000001111 '
b00000000000000000000000000000000 (
b10 3
#1500000
0!
#1505000
1!
b10 2
b00 3
#1510000
0!
#1515000
1!
b00 2
0)
#1520000
0!
#1525000
b00000000000000000000000000000101 +
b00000000000000000000000000001010 ,
b00000000000000000000000000000101 %
b00000000000000000000000000001010 &
1!
b00000000000000000000000000000101 8
b00000000000000000000000000001010 9
1$
b01 3
1*
b000000 1
b00000000000000000000000000001010 0
b111111111111111111111111111110110 ;
b0000000000000000000000000000000000000000000000000000000000000101 /
b0000000000000000000000000000000000000000000000000000000000001010 :
#1530000
0!
#1535000
1!
0$
b00000000000000000000000000000000 -
b00000000000000000000000000000101 .
b00 3
b01 2
0*
b01 3
#1540000
0!
#1545000
1!
b000001 1
b0000000000000000000000000000000000000000000000000000000000001010 /
b0000000000000000000000000000000000000000000000000000000000010100 :
#1550000
0!
#1555000
1!
b000010 1
b0000000000000000000000000000000000000000000000000000000000010100 /
b0000000000000000000000000000000000000000000000000000000000101000 :
#1560000
0!
#1565000
1!
b000011 1
b0000000000000000000000000000000000000000000000000000000000101000 /
b0000000000000000000000000000000000000000000000000000000001010000 :
#1570000
0!
#1575000
1!
b000100 1
b0000000000000000000000000000000000000000000000000000000001010000 /
b0000000000000000000000000000000000000000000000000000000010100000 :
#1580000
0!
#1585000
1!
b000101 1
b0000000000000000000000000000000000000000000000000000000010100000 /
b0000000000000000000000000000000000000000000000000000000101000000 :
#1590000
0!
#1595000
1!
b000110 1
b0000000000000000000000000000000000000000000000000000000101000000 /
b0000000000000000000000000000000000000000000000000000001010000000 :
#1600000
0!
#1605000
1!
b000111 1
b0000000000000000000000000000000000000000000000000000001010000000 /
b0000000000000000000000000000000000000000000000000000010100000000 :
#1610000
0!
#1615000
1!
b001000 1
b0000000000000000000000000000000000000000000000000000010100000000 /
b0000000000000000000000000000000000000000000000000000101000000000 :
#1620000
0!
#1625000
1!
b001001 1
b0000000000000000000000000000000000000000000000000000101000000000 /
b0000000000000000000000000000000000000000000000000001010000000000 :
#1630000
0!
#1635000
1!
b001010 1
b0000000000000000000000000000000000000000000000000001010000000000 /
b0000000000000000000000000000000000000000000000000010100000000000 :
#1640000
0!
#1645000
1!
b001011 1
b0000000000000000000000000000000000000000000000000010100000000000 /
b0000000000000000000000000000000000000000000000000101000000000000 :
#1650000
0!
#1655000
1!
b001100 1
b0000000000000000000000000000000000000000000000000101000000000000 /
b0000000000000000000000000000000000000000000000001010000000000000 :
#1660000
0!
#1665000
1!
b001101 1
b0000000000000000000000000000000000000000000000001010000000000000 /
b0000000000000000000000000000000000000000000000010100000000000000 :
#1670000
0!
#1675000
1!
b001110 1
b0000000000000000000000000000000000000000000000010100000000000000 /
b0000000000000000000000000000000000000000000000101000000000000000 :
#1680000
0!
#1685000
1!
b001111 1
b0000000000000000000000000000000000000000000000101000000000000000 /
b0000000000000000000000000000000000000000000001010000000000000000 :
#1690000
0!
#1695000
1!
b010000 1
b0000000000000000000000000000000000000000000001010000000000000000 /
b0000000000000000000000000000000000000000000010100000000000000000 :
#1700000
0!
#1705000
1!
b010001 1
b0000000000000000000000000000000000000000000010100000000000000000 /
b0000000000000000000000000000000000000000000101000000000000000000 :
#1710000
0!
#1715000
1!
b010010 1
b0000000000000000000000000000000000000000000101000000000000000000 /
b0000000000000000000000000000000000000000001010000000000000000000 :
#1720000
0!
#1725000
1!
b010011 1
b0000000000000000000000000000000000000000001010000000000000000000 /
b0000000000000000000000000000000000000000010100000000000000000000 :
#1730000
0!
#1735000
1!
b010100 1
b0000000000000000000000000000000000000000010100000000000000000000 /
b0000000000000000000000000000000000000000101000000000000000000000 :
#1740000
0!
#1745000
1!
b010101 1
b0000000000000000000000000000000000000000101000000000000000000000 /
b0000000000000000000000000000000000000001010000000000000000000000 :
#1750000
0!
#1755000
1!
b010110 1
b0000000000000000000000000000000000000001010000000000000000000000 /
b0000000000000000000000000000000000000010100000000000000000000000 :
#1760000
0!
#1765000
1!
b010111 1
b0000000000000000000000000000000000000010100000000000000000000000 /
b0000000000000000000000000000000000000101000000000000000000000000 :
#1770000
0!
#1775000
1!
b011000 1
b0000000000000000000000000000000000000101000000000000000000000000 /
b0000000000000000000000000000000000001010000000000000000000000000 :
#1780000
0!
#1785000
1!
b011001 1
b0000000000000000000000000000000000001010000000000000000000000000 /
b0000000000000000000000000000000000010100000000000000000000000000 :
#1790000
0!
#1795000
1!
b011010 1
b0000000000000000000000000000000000010100000000000000000000000000 /
b0000000000000000000000000000000000101000000000000000000000000000 :
#1800000
0!
#1805000
1!
b011011 1
b0000000000000000000000000000000000101000000000000000000000000000 /
b0000000000000000000000000000000001010000000000000000000000000000 :
#1810000
0!
#1815000
1!
b011100 1
b0000000000000000000000000000000001010000000000000000000000000000 /
b0000000000000000000000000000000010100000000000000000000000000000 :
#1820000
0!
#1825000
1!
b011101 1
b0000000000000000000000000000000010100000000000000000000000000000 /
b0000000000000000000000000000000101000000000000000000000000000000 :
b111111111111111111111111111110111 ;
#1830000
0!
#1835000
1!
b011110 1
b0000000000000000000000000000000101000000000000000000000000000000 /
b0000000000000000000000000000001010000000000000000000000000000000 :
b111111111111111111111111111111000 ;
#1840000
0!
#1845000
1!
b011111 1
b0000000000000000000000000000001010000000000000000000000000000000 /
b0000000000000000000000000000010100000000000000000000000000000000 :
b111111111111111111111111111111011 ;
#1850000
0!
