rtl_coremark_2026_2_9_13_44/mul/mul_3cycle/tb_mul_3cycle.vcd
$date
	Fri Feb  6 16:41:48 2026
$end

$version
	Synopsys VCS version O-2018.09-SP2_Full64
$end

$timescale
	1ps
$end

$comment Csum: 1 ed9efc12161257ac $end


$scope module tb_mul_3cycle $end
$var reg 1 ! clk $end
$var reg 1 " rst_n $end
$var reg 32 # mul_a_i [31:0] $end
$var reg 32 $ mul_b_i [31:0] $end
$var reg 1 % mul_a_sign $end
$var reg 1 & mul_b_sign $end
$var reg 1 ' mul_start $end
$var wire 64 ( mul_result [63:0] $end
$var wire 1 ) mul_done $end
$var wire 1 * mul_busy $end
$var integer 32 + test_count $end
$var integer 32 , pass_count $end
$var integer 32 - fail_count $end
$var reg 64 . expected_result [63:0] $end

$scope task test_multiply $end
$var reg 32 / a [31:0] $end
$var reg 32 0 b [31:0] $end
$var reg 1 1 a_signed $end
$var reg 1 2 b_signed $end
$upscope $end


$scope begin random_tests $end
$var integer 32 3 i $end
$var reg 32 4 rand_a [31:0] $end
$var reg 32 5 rand_b [31:0] $end
$var reg 1 6 rand_a_sign $end
$var reg 1 7 rand_b_sign $end
$upscope $end


$scope module dut $end
$var wire 1 ! clk $end
$var wire 1 " rst_n $end
$var wire 32 # mul_a_i [31:0] $end
$var wire 32 $ mul_b_i [31:0] $end
$var wire 1 % mul_a_sign $end
$var wire 1 & mul_b_sign $end
$var wire 1 ' mul_start $end
$var wire 64 ( mul_result [63:0] $end
$var wire 1 ) mul_done $end
$var wire 1 * mul_busy $end
$var reg 2 8 state [1:0] $end
$var reg 2 9 next_state [1:0] $end
$var wire 68 : pp1 [67:0] $end
$var wire 68 ; pp2 [67:0] $end
$var wire 68 < pp3 [67:0] $end
$var wire 68 = pp4 [67:0] $end
$var wire 68 > pp5 [67:0] $end
$var wire 68 ? pp6 [67:0] $end
$var wire 68 @ pp7 [67:0] $end
$var wire 68 A pp8 [67:0] $end
$var wire 68 B pp9 [67:0] $end
$var wire 68 C pp10 [67:0] $end
$var wire 68 D pp11 [67:0] $end
$var wire 68 E pp12 [67:0] $end
$var wire 68 F pp13 [67:0] $end
$var wire 68 G pp14 [67:0] $end
$var wire 68 H pp15 [67:0] $end
$var wire 68 I pp16 [67:0] $end
$var wire 68 J pp17 [67:0] $end
$var wire 69 K out11 [68:0] $end
$var wire 69 L out12 [68:0] $end
$var wire 69 M out21 [68:0] $end
$var wire 69 N out22 [68:0] $end
$var wire 69 O out31 [68:0] $end
$var wire 69 P out32 [68:0] $end
$var wire 69 Q out41 [68:0] $end
$var wire 69 R out42 [68:0] $end
$var wire 1 S cout_dummy $end
$var reg 69 T stage1_out11 [68:0] $end
$var reg 69 U stage1_out12 [68:0] $end
$var reg 69 V stage1_out21 [68:0] $end
$var reg 69 W stage1_out22 [68:0] $end
$var reg 69 X stage1_out31 [68:0] $end
$var reg 69 Y stage1_out32 [68:0] $end
$var reg 69 Z stage1_out41 [68:0] $end
$var reg 69 [ stage1_out42 [68:0] $end
$var reg 68 \ stage1_pp17 [67:0] $end
$var wire 68 ] out13 [67:0] $end
$var wire 68 ^ out14 [67:0] $end
$var wire 68 _ out23 [67:0] $end
$var wire 68 ` out24 [67:0] $end
$var wire 68 a out33 [67:0] $end
$var wire 68 b out34 [67:0] $end
$var wire 68 c out43 [67:0] $end
$var wire 68 d out44 [67:0] $end
$var wire 69 e out51 [68:0] $end
$var wire 69 f out52 [68:0] $end
$var wire 69 g out61 [68:0] $end
$var wire 69 h out62 [68:0] $end
$var wire 68 i out53 [67:0] $end
$var wire 68 j out54 [67:0] $end
$var wire 68 k out63 [67:0] $end
$var wire 68 l out64 [67:0] $end
$var wire 69 m out71 [68:0] $end
$var wire 69 n out72 [68:0] $end
$var reg 69 o stage2_out71 [68:0] $end
$var reg 69 p stage2_out72 [68:0] $end
$var reg 68 q stage2_pp17 [67:0] $end
$var wire 68 r out73 [67:0] $end
$var wire 68 s out74 [67:0] $end
$var wire 68 t re1 [67:0] $end
$var wire 68 u re2 [67:0] $end
$var wire 68 v mul_result_full [67:0] $end
$var reg 64 ( result_reg [63:0] $end
$var reg 1 ) done_reg $end

$scope module booth1 $end
$var wire 1 % a_sign $end
$var wire 1 & b_sign $end
$var wire 32 # i_multa [31:0] $end
$var wire 32 $ i_multb [31:0] $end
$var wire 68 : o_pp1 [67:0] $end
$var wire 68 ; o_pp2 [67:0] $end
$var wire 68 < o_pp3 [67:0] $end
$var wire 68 = o_pp4 [67:0] $end
$var wire 68 > o_pp5 [67:0] $end
$var wire 68 ? o_pp6 [67:0] $end
$var wire 68 @ o_pp7 [67:0] $end
$var wire 68 A o_pp8 [67:0] $end
$var wire 68 B o_pp9 [67:0] $end
$var wire 68 C o_pp10 [67:0] $end
$var wire 68 D o_pp11 [67:0] $end
$var wire 68 E o_pp12 [67:0] $end
$var wire 68 F o_pp13 [67:0] $end
$var wire 68 G o_pp14 [67:0] $end
$var wire 68 H o_pp15 [67:0] $end
$var wire 68 I o_pp16 [67:0] $end
$var wire 68 J o_pp17 [67:0] $end
$var wire 2 w sig_exta [1:0] $end
$var wire 2 x sig_extb [1:0] $end
$var wire 34 y x [33:0] $end
$var wire 34 z x_c [33:0] $end
$var wire 34 { xm2 [33:0] $end
$var wire 34 | x_cm2 [33:0] $end
$var wire 35 } y [34:0] $end
$upscope $end


$scope module compress1 $end
$var wire 68 : in1 [67:0] $end
$var wire 68 ; in2 [67:0] $end
$var wire 68 < in3 [67:0] $end
$var wire 68 = in4 [67:0] $end
$var wire 1 ~ cin $end
$var wire 69 K out1 [68:0] $end
$var wire 69 L out2 [68:0] $end
$var wire 1 S cout $end
$var wire 68 "! w1 [67:0] $end
$var wire 68 "" w2 [67:0] $end
$var wire 68 "# w3 [67:0] $end
$upscope $end


$scope module compress2 $end
$var wire 68 > in1 [67:0] $end
$var wire 68 ? in2 [67:0] $end
$var wire 68 @ in3 [67:0] $end
$var wire 68 A in4 [67:0] $end
$var wire 1 ~ cin $end
$var wire 69 M out1 [68:0] $end
$var wire 69 N out2 [68:0] $end
$var wire 1 S cout $end
$var wire 68 "$ w1 [67:0] $end
$var wire 68 "% w2 [67:0] $end
$var wire 68 "& w3 [67:0] $end
$upscope $end


$scope module compress3 $end
$var wire 68 B in1 [67:0] $end
$var wire 68 C in2 [67:0] $end
$var wire 68 D in3 [67:0] $end
$var wire 68 E in4 [67:0] $end
$var wire 1 ~ cin $end
$var wire 69 O out1 [68:0] $end
$var wire 69 P out2 [68:0] $end
$var wire 1 S cout $end
$var wire 68 "' w1 [67:0] $end
$var wire 68 "( w2 [67:0] $end
$var wire 68 ") w3 [67:0] $end
$upscope $end


$scope module compress4 $end
$var wire 68 F in1 [67:0] $end
$var wire 68 G in2 [67:0] $end
$var wire 68 H in3 [67:0] $end
$var wire 68 I in4 [67:0] $end
$var wire 1 ~ cin $end
$var wire 69 Q out1 [68:0] $end
$var wire 69 R out2 [68:0] $end
$var wire 1 S cout $end
$var wire 68 "* w1 [67:0] $end
$var wire 68 "+ w2 [67:0] $end
$var wire 68 ", w3 [67:0] $end
$upscope $end


$scope module compress5 $end
$var wire 68 ] in1 [67:0] $end
$var wire 68 "- in2 [67:0] $end
$var wire 68 _ in3 [67:0] $end
$var wire 68 ". in4 [67:0] $end
$var wire 1 ~ cin $end
$var wire 69 e out1 [68:0] $end
$var wire 69 f out2 [68:0] $end
$var wire 1 S cout $end
$var wire 68 "/ w1 [67:0] $end
$var wire 68 "0 w2 [67:0] $end
$var wire 68 "1 w3 [67:0] $end
$upscope $end


$scope module compress6 $end
$var wire 68 a in1 [67:0] $end
$var wire 68 "2 in2 [67:0] $end
$var wire 68 c in3 [67:0] $end
$var wire 68 "3 in4 [67:0] $end
$var wire 1 ~ cin $end
$var wire 69 g out1 [68:0] $end
$var wire 69 h out2 [68:0] $end
$var wire 1 S cout $end
$var wire 68 "4 w1 [67:0] $end
$var wire 68 "5 w2 [67:0] $end
$var wire 68 "6 w3 [67:0] $end
$upscope $end


$scope module compress7 $end
$var wire 68 i in1 [67:0] $end
$var wire 68 j in2 [67:0] $end
$var wire 68 k in3 [67:0] $end
$var wire 68 l in4 [67:0] $end
$var wire 1 ~ cin $end
$var wire 69 m out1 [68:0] $end
$var wire 69 n out2 [68:0] $end
$var wire 1 S cout $end
$var wire 68 "7 w1 [67:0] $end
$var wire 68 "8 w2 [67:0] $end
$var wire 68 "9 w3 [67:0] $end
$upscope $end


$scope module full_adder1 $end
$var wire 68 r a [67:0] $end
$var wire 68 s b [67:0] $end
$var wire 68 q ci [67:0] $end
$var wire 68 t s [67:0] $end
$var wire 68 u co [67:0] $end
$upscope $end

$upscope $end

$upscope $end

$enddefinitions $end

#0
$dumpvars
0!
0)
0%
0&
0'
x6
x7
0"
x*
x1
x2
bxxxxxxxxxxxxxxxxxxxxxxxxxxxxxxxxxxxxxxxxxxxxxxxxxxxxxxxxxxxxxxxx .
b00000000000000000000000000000000 -
b00000000000000000000000000000000 #
b00000000000000000000000000000000 $
b00000000000000000000000000000000000000000000000000000000000000000000 v
b00 9
b00000000000000000000000000000000000000000000000000000000000000000000 r
b00000000000000000000000000000000 ,
b00000000000000000000000000000000000000000000000000000000000000000000 J
bxxxxxxxxxxxxxxxxxxxxxxxxxxxxxxxx 3
bxxxxxxxxxxxxxxxxxxxxxxxxxxxxxxxx 4
bxxxxxxxxxxxxxxxxxxxxxxxxxxxxxxxx 5
b0000000000000000000000000000000000000000000000000000000000000000 (
b000000000000000000000000000000000000000000000000000000000000000000000 T
b000000000000000000000000000000000000000000000000000000000000000000000 U
b000000000000000000000000000000000000000000000000000000000000000000000 V
b000000000000000000000000000000000000000000000000000000000000000000000 W
b000000000000000000000000000000000000000000000000000000000000000000000 X
b000000000000000000000000000000000000000000000000000000000000000000000 Y
b000000000000000000000000000000000000000000000000000000000000000000000 Z
b000000000000000000000000000000000000000000000000000000000000000000000 [
b00000000000000000000000000000000000000000000000000000000000000000000 \
b000000000000000000000000000000000000000000000000000000000000000000000 o
b000000000000000000000000000000000000000000000000000000000000000000000 p
b00000000000000000000000000000000000000000000000000000000000000000000 q
b00 8
bxxxxxxxxxxxxxxxxxxxxxxxxxxxxxxxxxxxxxxxxxxxxxxxxxxxxxxxxxxxxxxxxxxxx s
bxxxxxxxxxxxxxxxxxxxxxxxxxxxxxxxxxxxxxxxxxxxxxxxxxxxxxxxxxxxxxxxxxxxx t
bxxxxxxxxxxxxxxxxxxxxxxxxxxxxxxxxxxxxxxxxxxxxxxxxxxxxxxxxxxxxxxxxxxxx u
bxx w
bxx x
bxxxxxxxxxxxxxxxxxxxxxxxxxxxxxxxxxxxxxxxxxxxxxxxxxxxxxxxxxxxxxxxxxxxx ^
bxxxxxxxxxxxxxxxxxxxxxxxxxxxxxxxxxxxxxxxxxxxxxxxxxxxxxxxxxxxxxxxxxxxx `
bxxxxxxxxxxxxxxxxxxxxxxxxxxxxxxxxxxxxxxxxxxxxxxxxxxxxxxxxxxxxxxxxxxxx b
bxxxxxxxxxxxxxxxxxxxxxxxxxxxxxxxxxxxxxxxxxxxxxxxxxxxxxxxxxxxxxxxxxxxx d
b00000000000000000000000000000000 +
bxxxxxxxxxxxxxxxxxxxxxxxxxxxxxxxx /
bxxxxxxxxxxxxxxxxxxxxxxxxxxxxxxxx 0
b0000000000000000000000000000000000 y
b0000000000000000000000000000000000 z
b0000000000000000000000000000000000 |
b0000000000000000000000000000000000 {
b00000000000000000000000000000000000 }
b00000000000000000000000000000000000000000000000000000000000000000000 "!
b00000000000000000000000000000000000000000000000000000000000000000000 ""
b00000000000000000000000000000000000000000000000000000000000000000000 "#
b00000000000000000000000000000000000000000000000000000000000000000000 "$
b00000000000000000000000000000000000000000000000000000000000000000000 "%
b00000000000000000000000000000000000000000000000000000000000000000000 "&
b00000000000000000000000000000000000000000000000000000000000000000000 "'
b00000000000000000000000000000000000000000000000000000000000000000000 "(
b00000000000000000000000000000000000000000000000000000000000000000000 ")
b00000000000000000000000000000000000000000000000000000000000000000000 "*
b00000000000000000000000000000000000000000000000000000000000000000000 "+
b00000000000000000000000000000000000000000000000000000000000000000000 ",
b00000000000000000000000000000000000000000000000000000000000000000000 "/
b00000000000000000000000000000000000000000000000000000000000000000000 "0
b00000000000000000000000000000000000000000000000000000000000000000000 "1
b00000000000000000000000000000000000000000000000000000000000000000000 "4
b00000000000000000000000000000000000000000000000000000000000000000000 "5
b00000000000000000000000000000000000000000000000000000000000000000000 "6
b00000000000000000000000000000000000000000000000000000000000000000000 "7
b00000000000000000000000000000000000000000000000000000000000000000000 "8
b00000000000000000000000000000000000000000000000000000000000000000000 "9
b000000000000000000000000000000000000000000000000000000000000000000000 f
b000000000000000000000000000000000000000000000000000000000000000000000 h
b000000000000000000000000000000000000000000000000000000000000000000000 e
b000000000000000000000000000000000000000000000000000000000000000000000 g
b00000000000000000000000000000000000000000000000000000000000000000000 :
b00000000000000000000000000000000000000000000000000000000000000000000 ;
b00000000000000000000000000000000000000000000000000000000000000000000 <
b00000000000000000000000000000000000000000000000000000000000000000000 =
b000000000000000000000000000000000000000000000000000000000000000000000 K
b000000000000000000000000000000000000000000000000000000000000000000000 L
0S
b00000000000000000000000000000000000000000000000000000000000000000000 >
b00000000000000000000000000000000000000000000000000000000000000000000 ?
b00000000000000000000000000000000000000000000000000000000000000000000 @
b00000000000000000000000000000000000000000000000000000000000000000000 A
b000000000000000000000000000000000000000000000000000000000000000000000 M
b000000000000000000000000000000000000000000000000000000000000000000000 N
b00000000000000000000000000000000000000000000000000000000000000000000 B
b00000000000000000000000000000000000000000000000000000000000000000000 C
b00000000000000000000000000000000000000000000000000000000000000000000 D
b00000000000000000000000000000000000000000000000000000000000000000000 E
b000000000000000000000000000000000000000000000000000000000000000000000 O
b000000000000000000000000000000000000000000000000000000000000000000000 P
b00000000000000000000000000000000000000000000000000000000000000000000 F
b00000000000000000000000000000000000000000000000000000000000000000000 G
b00000000000000000000000000000000000000000000000000000000000000000000 H
b00000000000000000000000000000000000000000000000000000000000000000000 I
b000000000000000000000000000000000000000000000000000000000000000000000 Q
b000000000000000000000000000000000000000000000000000000000000000000000 R
b00000000000000000000000000000000000000000000000000000000000000000000 ]
b00000000000000000000000000000000000000000000000000000000000000000000 _
b00000000000000000000000000000000000000000000000000000000000000000000 a
b00000000000000000000000000000000000000000000000000000000000000000000 c
b00000000000000000000000000000000000000000000000000000000000000000000 i
b00000000000000000000000000000000000000000000000000000000000000000000 k
b000000000000000000000000000000000000000000000000000000000000000000000 m
b000000000000000000000000000000000000000000000000000000000000000000000 n
b00000000000000000000000000000000000000000000000000000000000000000000 "-
b00000000000000000000000000000000000000000000000000000000000000000000 ".
b00000000000000000000000000000000000000000000000000000000000000000000 "2
b00000000000000000000000000000000000000000000000000000000000000000000 "3
b00000000000000000000000000000000000000000000000000000000000000000000 j
b00000000000000000000000000000000000000000000000000000000000000000000 l
0~
$end
b00 w
b00 x
0*
b00000000000000000000000000000000000000000000000000000000000000000000 ^
b00000000000000000000000000000000000000000000000000000000000000000000 `
b00000000000000000000000000000000000000000000000000000000000000000000 b
b00000000000000000000000000000000000000000000000000000000000000000000 d
b00000000000000000000000000000000000000000000000000000000000000000000 t
b00000000000000000000000000000000000000000000000000000000000000000000 u
b00000000000000000000000000000000000000000000000000000000000000000000 s
#5000
1!
#10000
0!
#15000
1!
#20000
1"
0!
#25000
1!
#30000
0!
#35000
1!
#40000
b00000000000000000000000000000000 /
b00000000000000000000000000000000 0
01
02
b00000000000000000000000000000001 +
b0000000000000000000000000000000000000000000000000000000000000000 .
1'
0!
b01 9
#45000
1!
0'
b00 9
b01 8
1*
b10 9
#50000
0!
#55000
1!
b10 8
b11 9
#60000
0!
#65000
1!
b11 8
b00 9
#70000
0!
#75000
1!
1)
b00 8
0*
#80000
0!
#85000
1!
b00000000000000000000000000000001 ,
0)
#90000
0!
#95000
1!
b00000000000000000000000000000001 /
b00000000000000000000000000000001 0
b00000000000000000000000000000010 +
b0000000000000000000000000000000000000000000000000000000000000001 .
b00000000000000000000000000000001 #
b00000000000000000000000000000001 $
1'
b0000000000000000000000000000000001 y
b1111111111111111111111111111111111 z
b1111111111111111111111111111111110 |
b0000000000000000000000000000000010 {
b00000000000000000000000000000000010 }
b01 9
b00000000000000000000000000000000000000000000000000000000000000000001 :
b00000000000000000000000000000000000000000000000000000000000000000001 "!
b000000000000000000000000000000000000000000000000000000000000000000001 L
#100000
0!
#105000
1!
0'
b00 9
b01 8
1*
b10 9
#110000
0!
#115000
1!
b000000000000000000000000000000000000000000000000000000000000000000001 U
b00000000000000000000000000000000000000000000000000000000000000000001 ^
b00000000000000000000000000000000000000000000000000000000000000000001 "-
b10 8
b00000000000000000000000000000000000000000000000000000000000000000001 "/
b000000000000000000000000000000000000000000000000000000000000000000001 f
b00000000000000000000000000000000000000000000000000000000000000000001 j
b00000000000000000000000000000000000000000000000000000000000000000001 "7
b000000000000000000000000000000000000000000000000000000000000000000001 n
b11 9
#120000
0!
#125000
1!
b000000000000000000000000000000000000000000000000000000000000000000001 p
b00000000000000000000000000000000000000000000000000000000000000000001 t
b00000000000000000000000000000000000000000000000000000000000000000001 s
b11 8
b00000000000000000000000000000000000000000000000000000000000000000001 v
b00 9
#130000
0!
#135000
1!
b0000000000000000000000000000000000000000000000000000000000000001 (
1)
b00 8
0*
#140000
0!
#145000
1!
b00000000000000000000000000000010 ,
0)
#150000
0!
#155000
1!
b00000000000000000000000000000010 /
b00000000000000000000000000000011 0
b00000000000000000000000000000011 +
b0000000000000000000000000000000000000000000000000000000000000110 .
b00000000000000000000000000000010 #
b00000000000000000000000000000011 $
1'
b0000000000000000000000000000000010 y
b1111111111111111111111111111111110 z
b1111111111111111111111111111111100 |
b0000000000000000000000000000000100 {
b00000000000000000000000000000000110 }
b01 9
b11111111111111111111111111111111110000000000000000000000000000000001 :
b11111111111111111111111111111111111111111111111111111111111111111110 :
b00000000000000000000000000000000000000000000000000000000000000001000 ;
b11111111111111111111111111111111111111111111111111111111111111110110 "!
b00000000000000000000000000000000000000000000000000000000000000001000 ""
b111111111111111111111111111111111111111111111111111111111111111110110 L
b000000000000000000000000000000000000000000000000000000000000000001000 K
#160000
0!
#165000
1!
0'
b00 9
b01 8
1*
b10 9
#170000
0!
#175000
1!
b000000000000000000000000000000000000000000000000000000000000000001000 T
b00000000000000000000000000000000000000000000000000000000000000010000 ]
b111111111111111111111111111111111111111111111111111111111111111110110 U
b11111111111111111111111111111111111111111111111111111111111111110110 ^
b11111111111111111111111111111111111111111111111111111111111111110110 "-
b10 8
b11111111111111111111111111111111111111111111111111111111111111100110 "/
b00000000000000000000000000000000000000000000000000000000000000010000 "0
b111111111111111111111111111111111111111111111111111111111111111100110 f
b11111111111111111111111111111111111111111111111111111111111111100110 j
b000000000000000000000000000000000000000000000000000000000000000010000 e
b00000000000000000000000000000000000000000000000000000000000000100000 i
b11111111111111111111111111111111111111111111111111111111111111000110 "7
b00000000000000000000000000000000000000000000000000000000000000100000 "8
b111111111111111111111111111111111111111111111111111111111111111000110 n
b000000000000000000000000000000000000000000000000000000000000000100000 m
b11 9
#180000
0!
#185000
1!
b000000000000000000000000000000000000000000000000000000000000000100000 o
b00000000000000000000000000000000000000000000000000000000000001000000 r
b11111111111111111111111111111111111111111111111111111111111110000110 t
b00000000000000000000000000000000000000000000000000000000000010000000 u
b111111111111111111111111111111111111111111111111111111111111111000110 p
b11111111111111111111111111111111111111111111111111111111111111000110 s
b11 8
b00000000000000000000000000000000000000000000000000000000000000000110 v
b00 9
#190000
0!
#195000
1!
b0000000000000000000000000000000000000000000000000000000000000110 (
1)
b00 8
0*
#200000
0!
#205000
1!
b00000000000000000000000000000011 ,
0)
#210000
0!
#215000
1!
b00000000000000000000000000001010 /
b00000000000000000000000000010100 0
b00000000000000000000000000000100 +
b0000000000000000000000000000000000000000000000000000000011001000 .
b00000000000000000000000000001010 #
b00000000000000000000000000010100 $
1'
b0000000000000000000000000000001010 y
b1111111111111111111111111111110110 z
b1111111111111111111111111111101100 |
b0000000000000000000000000000010100 {
b00000000000000000000000000000101000 }
b01 9
b00000000000000000000000000000000000000000000000000000000000000101000 ;
b00000000000000000000000000000000001111111111111111111111111111111110 :
b00000000000000000000000000000000000000000000000000000000000000000000 :
b00000000000000000000000000000000000000000000000000000000000010100000 <
b00000000000000000000000000000000000000000000000000000000000000000000 ""
b00000000000000000000000000000000000000000000000000000000000010001000 "!
b00000000000000000000000000000000000000000000000000000000000000100000 "#
b000000000000000000000000000000000000000000000000000000000000000000000 K
b000000000000000000000000000000000000000000000000000000000000011001000 L
#220000
0!
#225000
1!
0'
b00 9
b01 8
1*
b10 9
#230000
0!
#235000
1!
b000000000000000000000000000000000000000000000000000000000000000000000 T
b00000000000000000000000000000000000000000000000000000000000000000000 ]
b000000000000000000000000000000000000000000000000000000000000011001000 U
b00000000000000000000000000000000000000000000000000000000000011001000 ^
b00000000000000000000000000000000000000000000000000000000000011001000 "-
b10 8
b00000000000000000000000000000000000000000000000000000000000000000000 "0
b00000000000000000000000000000000000000000000000000000000000011001000 "/
b000000000000000000000000000000000000000000000000000000000000000000000 e
b00000000000000000000000000000000000000000000000000000000000000000000 i
b000000000000000000000000000000000000000000000000000000000000011001000 f
b00000000000000000000000000000000000000000000000000000000000011001000 j
b00000000000000000000000000000000000000000000000000000000000000000000 "8
b00000000000000000000000000000000000000000000000000000000000011001000 "7
b000000000000000000000000000000000000000000000000000000000000000000000 m
b000000000000000000000000000000000000000000000000000000000000011001000 n
b11 9
#240000
0!
#245000
1!
b000000000000000000000000000000000000000000000000000000000000000000000 o
b00000000000000000000000000000000000000000000000000000000000000000000 r
b00000000000000000000000000000000000000000000000000000000000011001000 t
b00000000000000000000000000000000000000000000000000000000000000000000 u
b000000000000000000000000000000000000000000000000000000000000011001000 p
b00000000000000000000000000000000000000000000000000000000000011001000 s
b11 8
b00000000000000000000000000000000000000000000000000000000000011001000 v
b00 9
#250000
0!
#255000
1!
b0000000000000000000000000000000000000000000000000000000011001000 (
1)
b00 8
0*
#260000
0!
#265000
1!
b00000000000000000000000000000100 ,
0)
#270000
0!
#275000
1!
b00000000000000000000000001100100 /
b00000000000000000000000001100100 0
b00000000000000000000000000000101 +
b0000000000000000000000000000000000000000000000000010011100010000 .
b00000000000000000000000001100100 #
b00000000000000000000000001100100 $
1'
b0000000000000000000000000001100100 y
b1111111111111111111111111110011100 z
b1111111111111111111111111100111000 |
b0000000000000000000000000011001000 {
b00000000000000000000000000011001000 }
b01 9
b11111111111111111111111111111100000000000000000000000000000010100000 <
b11111111111111111111111111111111111111111111111111111111001110000000 <
b00000000000000000000000000000000000000000000000000000000000110010000 ;
b00000000000000000000000000000000000000000000000000000011001000000000 =
b11111111111111111111111111111111111111111111111111111100000000010000 "!
b00000000000000000000000000000000000000000000000000000000000110000000 "#
b00000000000000000000000000000000000000000000000000000011001000000000 ""
b111111111111111111111111111111111111111111111111111111100001100010000 L
b000000000000000000000000000000000000000000000000000000011001000000000 K
#280000
0!
#285000
1!
0'
b00 9
b01 8
1*
b10 9
#290000
0!
#295000
1!
b000000000000000000000000000000000000000000000000000000011001000000000 T
b00000000000000000000000000000000000000000000000000000110010000000000 ]
b111111111111111111111111111111111111111111111111111111100001100010000 U
b11111111111111111111111111111111111111111111111111111100001100010000 ^
b11111111111111111111111111111111111111111111111111111100001100010000 "-
b10 8
b11111111111111111111111111111111111111111111111111111010011100010000 "/
b00000000000000000000000000000000000000000000000000000100000000000000 "0
b111111111111111111111111111111111111111111111111111111010011100010000 f
b11111111111111111111111111111111111111111111111111111010011100010000 j
b000000000000000000000000000000000000000000000000000000100000000000000 e
b00000000000000000000000000000000000000000000000000001000000000000000 i
b11111111111111111111111111111111111111111111111111110010011100010000 "7
b00000000000000000000000000000000000000000000000000001000000000000000 "8
b111111111111111111111111111111111111111111111111111110010011100010000 n
b000000000000000000000000000000000000000000000000000001000000000000000 m
b11 9
#300000
0!
#305000
1!
b000000000000000000000000000000000000000000000000000001000000000000000 o
b00000000000000000000000000000000000000000000000000010000000000000000 r
b11111111111111111111111111111111111111111111111111100010011100010000 t
b00000000000000000000000000000000000000000000000000100000000000000000 u
b111111111111111111111111111111111111111111111111111110010011100010000 p
b11111111111111111111111111111111111111111111111111110010011100010000 s
b11 8
b00000000000000000000000000000000000000000000000000000010011100010000 v
b00 9
#310000
0!
#315000
1!
b0000000000000000000000000000000000000000000000000010011100010000 (
1)
b00 8
0*
#320000
0!
#325000
1!
b00000000000000000000000000000101 ,
0)
#330000
0!
#335000
1!
b11111111111111111111111111111111 /
b00000000000000000000000000000001 0
b00000000000000000000000000000110 +
b0000000000000000000000000000000011111111111111111111111111111111 .
b11111111111111111111111111111111 #
b00000000000000000000000000000001 $
1'
b0011111111111111111111111111111111 y
b1100000000000000000000000000000001 z
b1000000000000000000000000000000010 |
b0111111111111111111111111111111110 {
b00000000000000000000000000000000010 }
b01 9
b00000000000000000000000000000000000000000000000000000000000000000000 ;
b00000000000000000000000000000000000000000000000000000000000000000000 =
b00000000000000000000000000000011111111111111111111111111001110000000 <
b00000000000000000000000000000000000000000000000000000000000000000000 <
b00000000000000000000000000000000000011111111111111111111111111111111 :
b00000000000000000000000000000000000000000000000000000000000000000000 "#
b00000000000000000000000000000000000011111111111111111111111111111111 "!
b00000000000000000000000000000000000000000000000000000000000000000000 ""
b100000000000000000000000000000000000011111111111111111111111111111111 L
b000000000000000000000000000000000000000000000000000000000000000000000 K
#340000
0!
#345000
1!
0'
b00 9
b01 8
1*
b10 9
#350000
0!
#355000
1!
b000000000000000000000000000000000000000000000000000000000000000000000 T
b00000000000000000000000000000000000000000000000000000000000000000000 ]
b100000000000000000000000000000000000011111111111111111111111111111111 U
b00000000000000000000000000000000000011111111111111111111111111111111 ^
b00000000000000000000000000000000000011111111111111111111111111111111 "-
b10 8
b00000000000000000000000000000000000000000000000000000000000000000000 "0
b00000000000000000000000000000000000011111111111111111111111111111111 "/
b000000000000000000000000000000000000000000000000000000000000000000000 e
b00000000000000000000000000000000000000000000000000000000000000000000 i
b100000000000000000000000000000000000011111111111111111111111111111111 f
b00000000000000000000000000000000000011111111111111111111111111111111 j
b00000000000000000000000000000000000000000000000000000000000000000000 "8
b00000000000000000000000000000000000011111111111111111111111111111111 "7
b000000000000000000000000000000000000000000000000000000000000000000000 m
b100000000000000000000000000000000000011111111111111111111111111111111 n
b11 9
#360000
0!
#365000
1!
b000000000000000000000000000000000000000000000000000000000000000000000 o
b00000000000000000000000000000000000000000000000000000000000000000000 r
b00000000000000000000000000000000000011111111111111111111111111111111 t
b00000000000000000000000000000000000000000000000000000000000000000000 u
b100000000000000000000000000000000000011111111111111111111111111111111 p
b00000000000000000000000000000000000011111111111111111111111111111111 s
b11 8
b00000000000000000000000000000000000011111111111111111111111111111111 v
b00 9
#370000
0!
#375000
1!
b0000000000000000000000000000000011111111111111111111111111111111 (
1)
b00 8
0*
#380000
0!
#385000
1!
b00000000000000000000000000000110 ,
0)
#390000
0!
#395000
1!
b11111111111111111111111111111111 0
b00000000000000000000000000000111 +
b1111111111111111111111111111111000000000000000000000000000000001 .
b11111111111111111111111111111111 $
1'
b00111111111111111111111111111111110 }
b01 9
b11111111111111111111111111111111110011111111111111111111111111111111 :
b11111111111111111111111111111111111100000000000000000000000000000001 :
b00001111111111111111111111111111111100000000000000000000000000000000 J
b11111111111111111111111111111111111100000000000000000000000000000001 "!
b011111111111111111111111111111111111100000000000000000000000000000001 L
#400000
0!
#405000
1!
0'
b00 9
b01 8
1*
b10 9
#410000
0!
#415000
1!
b011111111111111111111111111111111111100000000000000000000000000000001 U
b11111111111111111111111111111111111100000000000000000000000000000001 ^
b11111111111111111111111111111111111100000000000000000000000000000001 "-
b00001111111111111111111111111111111100000000000000000000000000000000 \
b10 8
b11111111111111111111111111111111111100000000000000000000000000000001 "/
b011111111111111111111111111111111111100000000000000000000000000000001 f
b11111111111111111111111111111111111100000000000000000000000000000001 j
b11111111111111111111111111111111111100000000000000000000000000000001 "7
b011111111111111111111111111111111111100000000000000000000000000000001 n
b11 9
#420000
0!
#425000
1!
b011111111111111111111111111111111111100000000000000000000000000000001 p
b11110000000000000000000000000000000000000000000000000000000000000001 t
b00011111111111111111111111111111111000000000000000000000000000000000 u
b11111111111111111111111111111111111100000000000000000000000000000001 s
b00001111111111111111111111111111111100000000000000000000000000000000 q
b11 8
b00001111111111111111111111111111111000000000000000000000000000000001 v
b00 9
#430000
0!
#435000
1!
b1111111111111111111111111111111000000000000000000000000000000001 (
1)
b00 8
0*
#440000
0!
#445000
1!
b00000000000000000000000000000111 ,
0)
#450000
0!
#455000
1!
b10000000000000000000000000000000 /
b00000000000000000000000000000010 0
b00000000000000000000000000001000 +
b0000000000000000000000000000000100000000000000000000000000000000 .
b10000000000000000000000000000000 #
b00000000000000000000000000000010 $
1'
b0010000000000000000000000000000000 y
b1110000000000000000000000000000000 z
b1100000000000000000000000000000000 |
b0100000000000000000000000000000000 {
b00000000000000000000000000000000100 }
b01 9
b00000000000000000000000000000000000000000000000000000000000000000000 J
b11111111111111111111111111111111111100000000000000000000000000000000 :
b00000000000000000000000000000000001000000000000000000000000000000000 ;
b11111111111111111111111111111111110100000000000000000000000000000000 "!
b00000000000000000000000000000000001000000000000000000000000000000000 ""
b011111111111111111111111111111111110100000000000000000000000000000000 L
b000000000000000000000000000000000001000000000000000000000000000000000 K
#460000
0!
#465000
1!
0'
b00 9
b01 8
1*
b10 9
#470000
0!
